{
  "architectures": ["arm64"],
  "author": "DANBER",
  "languages": [
    "de",
    "en"
  ],
  "name": {
    "de": "FeuchTemp",
    "en": "HumTemp"
  },
  "description_short": {
    "de": "Ist deine Wohnung eine Sauna oder ein feuchtes Verließ?",
    "en": "Is your home a hot sauna or a damp dungeon?"
  },
  "description_long": {
    "de": "Ist deine Wohnung eine Sauna oder ein feuchtes Verließ?<br>Lese die Temperatur und Feuchtigkeit über einen DHT-Sensor aus.<br><br>Hardware-Setup: https://www.einplatinencomputer.com/raspberry-pi-temperatur-und-luftfeuchtigkeitssensor-dht22/<br><br>Notiz: Das extra Flag wird für den Zugriff auf die GPIO-Pins benötigt.<br>Die Anfrage an den Sensor kann einige Sekunden dauern.",
    "en": "Is your home a hot sauna or a damp dungeon?<br>Read the temperature and humidity from a DHT sensor.<br><br>Hardware setup: https://www.einplatinencomputer.com/raspberry-pi-temperatur-und-luftfeuchtigkeitssensor-dht22/<br><br>Note: The extra flag is needed to access the GPIO pins.<br>The request to the sensor can take a few seconds."
  },
  "symbol": "fire-station-16.png",
  "color": "#ff3333"
}
